{
    "name": "Location",
    "alias": "location",
    "description": "",
    "keywords": [],
    "active": 1,
    "order": 0,
    "providers": [
        "Modules\\Location\\Providers\\LocationServiceProvider"
    ],
    "aliases":{},
    "files": [
        "start.php"
    ]
}
